FIRMWARE_VER:10.0
MACHINE_MODEL:RK3399
MACHINE_ID:007
MANUFACTURER: RK3399
MAGIC: 0x5041524B
ATAG: 0x00200800
MACHINE: 3399
CHECK_MASK: 0x80
PWR_HLD: 0,0,A,0,1
TYPE: GPT
CMDLINE: mtdparts=rk29xxnand:0x00002000@0x00004000(uboot),0x00002000@0x00006000(trust),0x00002000@0x00008000(misc),0x00002000@0x0000a000(dtb),0x00002000@0x0000c000(dtbo),0x00002000@0x0000e000(vbmeta),0x00010000@0x00010000(boot),0x00030000@0x00020000(recovery),0x00038000@0x00050000(backup),0x00002000@0x00088000(security),0x000c0000@0x0008a000(cache),0x00008000@0x0014a000(metadata),0x00002000@0x00152000(frp),0x00614000@0x00154000(super),-@0x00768000(userdata:grow)
